<?xml version="1.0" encoding="UTF-8" standalone="no"?>
<svg
   xmlns:dc="http://purl.org/dc/elements/1.1/"
   xmlns:cc="http://creativecommons.org/ns#"
   xmlns:rdf="http://www.w3.org/1999/02/22-rdf-syntax-ns#"
   xmlns:svg="http://www.w3.org/2000/svg"
   xmlns="http://www.w3.org/2000/svg"
   xmlns:sodipodi="http://sodipodi.sourceforge.net/DTD/sodipodi-0.dtd"
   xmlns:inkscape="http://www.inkscape.org/namespaces/inkscape"
   version="1.1"
   id="Layer_1"
   x="0px"
   y="0px"
   viewBox="0 0 1599.9999 300"
   xml:space="preserve"
   sodipodi:docname="logo-whitebg.svg"
   width="1600"
   height="300"
   inkscape:version="1.0.2 (e86c870879, 2021-01-15)"><metadata
   id="metadata143"><rdf:RDF><cc:Work
       rdf:about=""><dc:format>image/svg+xml</dc:format><dc:type
         rdf:resource="http://purl.org/dc/dcmitype/StillImage" /><dc:title></dc:title></cc:Work></rdf:RDF></metadata><defs
   id="defs141" /><sodipodi:namedview
   pagecolor="#ffffff"
   bordercolor="#666666"
   borderopacity="1"
   objecttolerance="10"
   gridtolerance="10"
   guidetolerance="10"
   inkscape:pageopacity="0"
   inkscape:pageshadow="2"
   inkscape:window-width="1817"
   inkscape:window-height="695"
   id="namedview139"
   showgrid="false"
   inkscape:zoom="0.33789655"
   inkscape:cx="938.98961"
   inkscape:cy="306.85997"
   inkscape:window-x="224"
   inkscape:window-y="93"
   inkscape:window-maximized="0"
   inkscape:current-layer="Layer_1" />
<style
   type="text/css"
   id="style2">
	.st0{fill:#1D1D1B;}
	.st1{fill:#FFFFFF;}
	.st2{fill:url(#SVGID_1_);}
	.st3{fill:url(#SVGID_2_);}
	.st4{fill:url(#SVGID_3_);}
	.st5{fill:url(#SVGID_4_);}
	.st6{fill:url(#SVGID_5_);}
	.st7{fill:url(#SVGID_6_);}
	.st8{fill:url(#SVGID_7_);}
	.st9{fill:url(#SVGID_8_);}
	.st10{fill:url(#SVGID_9_);}
	.st11{fill:url(#SVGID_10_);}
</style>















<linearGradient
   id="SVGID_1_"
   gradientUnits="userSpaceOnUse"
   x1="536.2594"
   y1="1101.042"
   x2="536.2594"
   y2="840.96112">
	<stop
   offset="0.2852"
   style="stop-color:#40FFE8"
   id="stop34" />
	<stop
   offset="0.855"
   style="stop-color:#59DCFF"
   id="stop36" />
</linearGradient>

<linearGradient
   id="SVGID_2_"
   gradientUnits="userSpaceOnUse"
   x1="511.95071"
   y1="1101.0525"
   x2="511.95071"
   y2="840.96112">
	<stop
   offset="0.3523"
   style="stop-color:#40DDEE"
   id="stop41" />
	<stop
   offset="0.855"
   style="stop-color:#59DCFF"
   id="stop43" />
</linearGradient>

<linearGradient
   id="SVGID_3_"
   gradientUnits="userSpaceOnUse"
   x1="487.64221"
   y1="1101.042"
   x2="487.64221"
   y2="840.96112">
	<stop
   offset="0.2852"
   style="stop-color:#3FBAF3"
   id="stop48" />
	<stop
   offset="0.855"
   style="stop-color:#59DCFF"
   id="stop50" />
</linearGradient>

<linearGradient
   id="SVGID_4_"
   gradientUnits="userSpaceOnUse"
   x1="463.33551"
   y1="1101.036"
   x2="463.33551"
   y2="840.96112">
	<stop
   offset="0.3207"
   style="stop-color:#3F98F9"
   id="stop55" />
	<stop
   offset="0.7803"
   style="stop-color:#59DCFF"
   id="stop57" />
</linearGradient>

<linearGradient
   id="SVGID_5_"
   gradientUnits="userSpaceOnUse"
   x1="439.02139"
   y1="1101.042"
   x2="439.02139"
   y2="840.96112">
	<stop
   offset="0"
   style="stop-color:#3E75FF"
   id="stop62" />
	<stop
   offset="0.2894"
   style="stop-color:#3F77FF"
   id="stop64" />
	<stop
   offset="0.8119"
   style="stop-color:#59DCFF"
   id="stop66" />
</linearGradient>

<g
   id="g136"
   transform="translate(-323.28263,1390.3889)">
	<path
   class="st0"
   d="m 720.5,-1211.8 h 41.7 c -5.2,15.7 -19.5,24.8 -39.3,24.8 -14.1,0 -25.5,-4.2 -33.9,-12.4 -8.4,-8.4 -12.6,-19.1 -12.6,-31.9 0,-13.1 4.2,-23.9 12.5,-32.1 8.3,-8.5 19.1,-12.8 32.1,-12.8 15.6,0 29.9,7.4 36.6,18.8 l 0.4,0.7 24.8,-14.3 -0.4,-0.7 c -12.2,-20.2 -35.7,-32.7 -61.1,-32.7 -20.7,0 -38.4,7.1 -52.5,21.3 -14,14.2 -21,31.6 -21,51.9 0,20.2 7.1,37.6 21.3,51.7 14.2,14 32.3,21 53.9,21 20.2,0 36.9,-6.3 49.7,-18.7 12.8,-12.4 19.3,-28.8 19.3,-48.7 v -11.5 h -71.2 v 25.6 z"
   id="path71" />
	<rect
   x="805.59998"
   y="-1301.8"
   class="st0"
   width="29"
   height="140.39999"
   id="rect73" />
	<path
   class="st0"
   d="m 934.4,-1233.9 c -2,-1.4 -4.9,-2.8 -8.9,-4.2 -3.8,-1.6 -6.8,-2.8 -9,-3.4 l -9.5,-3.2 c -9.7,-3 -16.9,-6 -20.7,-8.6 -3.4,-2.6 -5,-5.9 -5,-10.1 0,-7.9 6.8,-13.1 17.4,-13.1 11.8,0 20.4,5.8 25.8,17.4 l 0.4,0.8 24.4,-14.1 -0.3,-0.7 c -9.7,-20.1 -28.1,-31.6 -50.3,-31.6 -12.8,0 -23.8,3.9 -32.8,11.5 -9,7.4 -13.6,17.7 -13.6,30.6 0,12.7 4.5,22.6 13.4,29.2 8.9,6.3 16.8,9.3 29,13 11,3.1 18.8,6.1 23.2,8.8 4.1,2.4 6.1,5.9 6.1,10.6 0,8.8 -7.8,13.9 -21.4,13.9 -15.5,0 -25.9,-7 -31.2,-20.7 l -0.3,-0.9 -24.8,14.5 0.2,0.6 c 8.1,22.1 28.2,34.8 55.3,34.8 15,0 27.4,-3.9 36.8,-11.5 9.5,-7.7 14.4,-18.2 14.4,-31.2 0,-7.4 -1.9,-14.7 -5.2,-20 -2.7,-4.6 -8.9,-9.6 -13.4,-12.4 z"
   id="path75" />
	<path
   class="st0"
   d="m 1050.2,-1276.3 c 15.6,0 28.5,7.1 35.4,19.4 l 0.4,0.7 25,-14.5 -0.4,-0.7 c -12.1,-20.4 -35.3,-33.1 -60.4,-33.1 -20.9,0 -38.5,7.1 -52.3,21 -13.7,13.7 -20.6,31.2 -20.6,51.9 0,20.5 6.9,38 20.6,51.9 13.8,14 31.4,21.1 52.3,21.1 25.1,0 48.2,-12.7 60.4,-33.1 l 0.4,-0.7 -25,-14.5 -0.4,0.7 c -6.4,11.8 -20,19.2 -35.4,19.2 -13.3,0 -24.1,-4.2 -32.1,-12.4 -8,-8.4 -12.1,-19.2 -12.1,-32.1 0,-13.1 4.1,-23.9 12.1,-32.3 8,-8.3 18.8,-12.5 32.1,-12.5 z"
   id="path77" />
	<path
   class="st0"
   d="m 1173.3,-1264.8 c -14.8,0 -27.5,5.2 -37.8,15.5 -10.3,10.3 -15.3,22.6 -15.3,37.6 0,15 5.1,27.7 15.3,37.8 10.2,10.2 22.9,15.3 37.8,15.3 15,0 27.7,-5.1 37.8,-15.3 10.3,-10.3 15.5,-23 15.5,-37.8 0,-14.7 -5.2,-27.4 -15.5,-37.6 -10.3,-10.3 -23,-15.5 -37.8,-15.5 z m 26.1,53.1 c 0,7.7 -2.5,14.1 -7.5,19.1 -5,5 -11.1,7.5 -18.7,7.5 -7.5,0 -13.6,-2.5 -18.6,-7.5 -4.8,-5 -7.3,-11.5 -7.3,-19.1 0,-7.6 2.5,-14 7.3,-19.1 5,-5 11.1,-7.5 18.7,-7.5 7.5,0 13.6,2.5 18.7,7.5 4.9,5.1 7.4,11.5 7.4,19.1 z"
   id="path79" />
	<rect
   x="1240.2"
   y="-1301.7"
   class="st0"
   width="27.200001"
   height="140.10001"
   id="rect81" />
	<rect
   x="1286.1"
   y="-1301.7"
   class="st0"
   width="27.200001"
   height="140.10001"
   id="rect83" />
	<path
   class="st0"
   d="m 1378.7,-1265.2 c -15.6,0 -28.5,5.2 -38.2,15.3 -9.9,10.1 -14.9,22.8 -14.9,37.8 0,15.2 5.1,28 15.1,38 10,10 23.5,15.1 40,15.1 19.2,0 34,-7.3 43.9,-21.6 l 0.5,-0.7 -22,-12.7 -0.4,0.6 c -4.8,6.4 -12.1,9.6 -21.6,9.6 -14.6,0 -23.4,-5.6 -26.9,-17 h 74.3 l 0.1,-0.7 c 0.5,-3.1 1,-6.9 1,-10.6 0,-15.1 -4.7,-27.5 -14.5,-37.8 -9.3,-10.1 -21.6,-15.3 -36.4,-15.3 z m -24.9,43 c 3.1,-11.7 12.2,-18.4 24.9,-18.4 11.9,0 20.6,6.9 23.6,18.4 z"
   id="path85" />
	<path
   class="st0"
   d="m 1515,-1198.5 c -3.9,7.9 -12.1,12.6 -22.1,12.6 -7.4,0 -13.6,-2.5 -18.4,-7.3 -4.8,-5 -7.3,-11.4 -7.3,-18.9 0,-15.3 10.8,-26.3 25.8,-26.3 9.6,0 18,4.9 21.9,12.8 l 0.4,0.8 23.4,-13.7 -0.4,-0.7 c -8.3,-16 -25.6,-26 -45.1,-26 -15.1,0 -27.9,5.1 -38,15.3 -10.2,10.4 -15.1,22.7 -15.1,37.8 0,15.1 4.9,27.5 15.1,37.8 v 0 c 10.2,10.2 22.9,15.3 38,15.3 19.1,0 36.5,-10 45.5,-26.2 l 0.4,-0.7 -23.6,-13.5 z"
   id="path87" />
	<path
   class="st0"
   d="m 1579.6,-1290.1 h -27.2 v 27.7 26.2 40.4 c 0,13.1 2.9,21.8 9.2,27.4 5.7,5.1 14.2,7.5 26.2,7.5 4.1,0 8.5,-0.3 13.4,-0.8 l 0.7,-0.1 v -24.8 h -0.8 c -9.3,0.5 -16.1,0.6 -19.3,-2.4 -1.6,-1.5 -2.3,-3.7 -2.3,-6.9 v -40.4 h 22.4 v -26.2 h -22.4 v -27.6 z"
   id="path89" />
	<rect
   x="1618.4"
   y="-1262.4"
   class="st0"
   width="27.200001"
   height="100.7"
   id="rect91" />
	<path
   class="st0"
   d="m 1631.9,-1305.8 c -8.9,0 -16.5,7.6 -16.5,16.7 0,8.9 7.5,16.5 16.5,16.5 9.2,0 16.7,-7.4 16.7,-16.5 0,-9.1 -7.6,-16.7 -16.7,-16.7 z"
   id="path93" />
	<polygon
   class="st0"
   points="1762.7,-1262.4 1732.9,-1262.4 1709.2,-1194.7 1686,-1261.9 1685.8,-1262.4 1656,-1262.4 1694,-1162.2 1694.2,-1161.7 1724.5,-1161.7 "
   id="polygon95" />
	<path
   class="st0"
   d="m 1850.4,-1249.9 c -9.4,-10.2 -21.6,-15.3 -36.5,-15.3 -15.6,0 -28.5,5.2 -38.2,15.3 -9.9,10.1 -14.9,22.8 -14.9,37.8 0,15.2 5.1,28 15.1,38 10,10 23.5,15.1 40,15.1 19.2,0 34,-7.3 43.9,-21.6 l 0.5,-0.7 -22,-12.7 -0.4,0.6 c -4.8,6.4 -12.1,9.6 -21.6,9.6 -14.6,0 -23.4,-5.6 -26.9,-17 h 74.3 l 0.1,-0.7 c 0.7,-4.4 1,-7.6 1,-10.6 0,-15 -4.7,-27.4 -14.4,-37.8 z m -12.9,27.7 H 1789 c 3.1,-11.7 12.2,-18.4 24.9,-18.4 11.9,0 20.6,6.9 23.6,18.4 z"
   id="path97" />
	<linearGradient
   id="SVGID_6_"
   gradientUnits="userSpaceOnUse"
   x1="536.2594"
   y1="-1106.48"
   x2="536.2594"
   y2="-1366.5609">
		<stop
   offset="0.2852"
   style="stop-color:#40FFE8"
   id="stop99" />
		<stop
   offset="0.855"
   style="stop-color:#59DCFF"
   id="stop101" />
	</linearGradient>
	<path
   class="st7"
   d="m 487.6,-1106.5 c 3.4,0 6.6,-1.3 9,-3.7 l 68.7,-68.8 c 17,-17 27.8,-38.5 31.1,-62.3 0.7,-5.1 1.1,-10.3 1.1,-15.5 0,-29.3 -11.4,-56.9 -32.2,-77.7 -20.8,-20.8 -48.3,-32.2 -77.7,-32.2 h -0.1 c -7,0 -12.7,5.7 -12.7,12.7 0,7 5.7,12.7 12.7,12.7 22.6,0 43.8,8.8 59.8,24.8 16,16 24.8,37.2 24.8,59.8 0,4 -0.3,8 -0.8,11.9 -2.6,18.3 -10.9,34.8 -23.9,47.9 l -68.8,68.8 c -2.4,2.4 -3.7,5.6 -3.7,9 0,3.4 1.3,6.6 3.7,9 2.5,2.3 5.7,3.6 9,3.6 z"
   id="path104"
   style="fill:url(#SVGID_6_)" />
	<linearGradient
   id="SVGID_7_"
   gradientUnits="userSpaceOnUse"
   x1="511.95071"
   y1="-1106.4695"
   x2="511.95071"
   y2="-1366.5609">
		<stop
   offset="0.3523"
   style="stop-color:#40DDEE"
   id="stop106" />
		<stop
   offset="0.855"
   style="stop-color:#59DCFF"
   id="stop108" />
	</linearGradient>
	<path
   class="st8"
   d="m 499,-1113.5 0.1,-0.1 34.3,-68.6 c 8.2,-16.5 13.4,-37.2 15.1,-59.9 0.3,-4.8 0.5,-9.7 0.5,-14.5 0,-28.3 -5.4,-54 -15.6,-74.4 -5.5,-10.9 -12,-19.5 -19.4,-25.5 -7.8,-6.4 -17.1,-9.9 -26.2,-9.9 h -0.1 c -7,0 -12.7,5.7 -12.7,12.7 0,7 5.7,12.7 12.7,12.7 3.4,0 6.7,1.4 10.3,4.3 4.5,3.6 9,9.7 12.7,17.2 8.2,16.4 13,39.4 12.9,63.1 0,4.2 -0.1,8.5 -0.4,12.8 -1.3,19.1 -5.8,37 -12.5,50.3 l -34.4,68.8 c -3.1,6.2 -0.6,13.9 5.7,17 3,1.5 6.5,1.8 9.7,0.7 3.2,-1.4 5.8,-3.7 7.3,-6.7 z"
   id="path111"
   style="fill:url(#SVGID_7_)" />
	<linearGradient
   id="SVGID_8_"
   gradientUnits="userSpaceOnUse"
   x1="487.64221"
   y1="-1106.48"
   x2="487.64221"
   y2="-1366.5609">
		<stop
   offset="0.2852"
   style="stop-color:#3FBAF3"
   id="stop113" />
		<stop
   offset="0.855"
   style="stop-color:#59DCFF"
   id="stop115" />
	</linearGradient>
	<path
   class="st9"
   d="m 487.6,-1366.6 c -7,0 -12.7,5.7 -12.7,12.7 v 234.8 c 0,7 5.7,12.7 12.7,12.7 7,0 12.7,-5.7 12.7,-12.7 v -234.8 c 0,-7 -5.7,-12.7 -12.7,-12.7 z"
   id="path118"
   style="fill:url(#SVGID_8_)" />
	<linearGradient
   id="SVGID_9_"
   gradientUnits="userSpaceOnUse"
   x1="463.33551"
   y1="-1106.486"
   x2="463.33551"
   y2="-1366.5609">
		<stop
   offset="0.3207"
   style="stop-color:#3F98F9"
   id="stop120" />
		<stop
   offset="0.7803"
   style="stop-color:#59DCFF"
   id="stop122" />
	</linearGradient>
	<path
   class="st10"
   d="m 499.7,-1115.1 c 1.1,-3.2 0.8,-6.6 -0.7,-9.7 v -0.1 l -34.3,-68.7 c -6.7,-13.3 -11.1,-31.2 -12.5,-50.3 -0.3,-4.2 -0.4,-8.5 -0.4,-12.8 0,-23.7 4.7,-46.7 12.9,-63.1 3.7,-7.5 8.2,-13.6 12.7,-17.2 3.6,-2.9 6.9,-4.3 10.3,-4.3 7,0 12.7,-5.7 12.7,-12.7 0,-7 -5.7,-12.7 -12.7,-12.7 h -0.1 c -9,0 -18.3,3.5 -26.2,9.9 -7.5,6.1 -13.9,14.5 -19.4,25.5 -10.1,20.4 -15.5,46.2 -15.6,74.4 0,4.9 0.2,9.8 0.5,14.6 1.6,22.6 6.8,43.3 15.1,59.9 l 34.4,68.8 c 3.1,6.2 10.8,8.8 17,5.7 2.9,-1.4 5.2,-4 6.3,-7.2 z"
   id="path125"
   style="fill:url(#SVGID_9_)" />
	<linearGradient
   id="SVGID_10_"
   gradientUnits="userSpaceOnUse"
   x1="439.02139"
   y1="-1106.48"
   x2="439.02139"
   y2="-1366.5609">
		<stop
   offset="0"
   style="stop-color:#3E75FF"
   id="stop127" />
		<stop
   offset="0.2894"
   style="stop-color:#3F77FF"
   id="stop129" />
		<stop
   offset="0.8119"
   style="stop-color:#59DCFF"
   id="stop131" />
	</linearGradient>
	<path
   class="st11"
   d="m 487.6,-1366.6 v 0 c -29.4,0 -57,11.4 -77.7,32.2 -20.8,20.8 -32.2,48.4 -32.2,77.7 0,29.4 11.4,57 32.2,77.7 l 68.8,68.8 c 2.4,2.4 5.6,3.7 8.9,3.7 3.4,0 6.6,-1.3 9,-3.7 2.4,-2.4 3.7,-5.6 3.7,-9 0,-3.4 -1.3,-6.6 -3.7,-9 l -68.8,-68.8 c -16,-16 -24.8,-37.2 -24.8,-59.8 0,-22.6 8.8,-43.8 24.8,-59.8 16,-16 37.2,-24.8 59.8,-24.8 7,0 12.7,-5.7 12.7,-12.7 0,-6.8 -5.7,-12.5 -12.7,-12.5 z"
   id="path134"
   style="fill:url(#SVGID_10_)" />
</g>
</svg>
