<?xml version="1.0" encoding="utf-8"?>
<!-- Generator: Adobe Illustrator 21.1.0, SVG Export Plug-In . SVG Version: 6.00 Build 0)  -->
<svg version="1.1" id="Layer_1" xmlns="http://www.w3.org/2000/svg" xmlns:xlink="http://www.w3.org/1999/xlink" x="0px" y="0px"
	 viewBox="0 0 2242.6 1942" style="enable-background:new 0 0 2242.6 1942;" xml:space="preserve">
<style type="text/css">
	.st0{fill:#1D1D1B;}
	.st1{fill:#FFFFFF;}
	.st2{fill:url(#SVGID_1_);}
	.st3{fill:url(#SVGID_2_);}
	.st4{fill:url(#SVGID_3_);}
	.st5{fill:url(#SVGID_4_);}
	.st6{fill:url(#SVGID_5_);}
	.st7{fill:url(#SVGID_6_);}
	.st8{fill:url(#SVGID_7_);}
	.st9{fill:url(#SVGID_8_);}
	.st10{fill:url(#SVGID_9_);}
	.st11{fill:url(#SVGID_10_);}
</style>
<rect class="st0" width="2242.6" height="1942"/>
<path class="st1" d="M720.5,995.7h41.7c-5.2,15.7-19.5,24.8-39.3,24.8c-14.1,0-25.5-4.2-33.9-12.4c-8.4-8.4-12.6-19.1-12.6-31.9
	c0-13.1,4.2-23.9,12.5-32.1c8.3-8.5,19.1-12.8,32.1-12.8c15.6,0,29.9,7.4,36.6,18.8l0.4,0.7l24.8-14.3l-0.4-0.7
	c-12.2-20.2-35.7-32.7-61.1-32.7c-20.7,0-38.4,7.1-52.5,21.3c-14,14.2-21,31.6-21,51.9c0,20.2,7.1,37.6,21.3,51.7
	c14.2,14,32.3,21,53.9,21c20.2,0,36.9-6.3,49.7-18.7c12.8-12.4,19.3-28.8,19.3-48.7v-11.5h-71.2V995.7z"/>
<rect x="805.6" y="905.7" class="st1" width="29" height="140.4"/>
<path class="st1" d="M934.4,973.6c-2-1.4-4.9-2.8-8.9-4.2c-3.8-1.6-6.8-2.8-9-3.4l-9.5-3.2c-9.7-3-16.9-6-20.7-8.6
	c-3.4-2.6-5-5.9-5-10.1c0-7.9,6.8-13.1,17.4-13.1c11.8,0,20.4,5.8,25.8,17.4l0.4,0.8l24.4-14.1l-0.3-0.7
	c-9.7-20.1-28.1-31.6-50.3-31.6c-12.8,0-23.8,3.9-32.8,11.5c-9,7.4-13.6,17.7-13.6,30.6c0,12.7,4.5,22.6,13.4,29.2
	c8.9,6.3,16.8,9.3,29,13c11,3.1,18.8,6.1,23.2,8.8c4.1,2.4,6.1,5.9,6.1,10.6c0,8.8-7.8,13.9-21.4,13.9c-15.5,0-25.9-7-31.2-20.7
	l-0.3-0.9l-24.8,14.5l0.2,0.6c8.1,22.1,28.2,34.8,55.3,34.8c15,0,27.4-3.9,36.8-11.5c9.5-7.7,14.4-18.2,14.4-31.2
	c0-7.4-1.9-14.7-5.2-20C945.1,981.4,938.9,976.4,934.4,973.6z"/>
<path class="st1" d="M1050.2,931.3c15.6,0,28.5,7.1,35.4,19.4l0.4,0.7l25-14.5l-0.4-0.7c-12.1-20.4-35.3-33.1-60.4-33.1
	c-20.9,0-38.5,7.1-52.3,21c-13.7,13.7-20.6,31.2-20.6,51.9c0,20.5,6.9,38,20.6,51.9c13.8,14,31.4,21.1,52.3,21.1
	c25.1,0,48.2-12.7,60.4-33.1l0.4-0.7l-25-14.5l-0.4,0.7c-6.4,11.8-20,19.2-35.4,19.2c-13.3,0-24.1-4.2-32.1-12.4
	c-8-8.4-12.1-19.2-12.1-32.1c0-13.1,4.1-23.9,12.1-32.3C1026.1,935.4,1036.9,931.3,1050.2,931.3z"/>
<path class="st1" d="M1173.3,942.7c-14.8,0-27.5,5.2-37.8,15.5c-10.3,10.3-15.3,22.6-15.3,37.6c0,15,5.1,27.7,15.3,37.8
	c10.2,10.2,22.9,15.3,37.8,15.3c15,0,27.7-5.1,37.8-15.3c10.3-10.3,15.5-23,15.5-37.8c0-14.7-5.2-27.4-15.5-37.6
	C1200.8,947.9,1188.1,942.7,1173.3,942.7z M1199.4,995.9c0,7.7-2.5,14.1-7.5,19.1c-5,5-11.1,7.5-18.7,7.5c-7.5,0-13.6-2.5-18.6-7.5
	c-4.8-5-7.3-11.5-7.3-19.1c0-7.6,2.5-14,7.3-19.1c5-5,11.1-7.5,18.7-7.5c7.5,0,13.6,2.5,18.7,7.5
	C1196.9,981.8,1199.4,988.2,1199.4,995.9z"/>
<rect x="1240.2" y="905.9" class="st1" width="27.2" height="140.1"/>
<rect x="1286.1" y="905.9" class="st1" width="27.2" height="140.1"/>
<path class="st1" d="M1378.7,942.3c-15.6,0-28.5,5.2-38.2,15.3c-9.9,10.1-14.9,22.8-14.9,37.8c0,15.2,5.1,28,15.1,38
	c10,10,23.5,15.1,40,15.1c19.2,0,34-7.3,43.9-21.6l0.5-0.7l-22-12.7l-0.4,0.6c-4.8,6.4-12.1,9.6-21.6,9.6c-14.6,0-23.4-5.6-26.9-17
	h74.3l0.1-0.7c0.5-3.1,1-6.9,1-10.6c0-15.1-4.7-27.5-14.5-37.8C1405.8,947.5,1393.5,942.3,1378.7,942.3z M1353.8,985.4
	c3.1-11.7,12.2-18.4,24.9-18.4c11.9,0,20.6,6.9,23.6,18.4H1353.8z"/>
<path class="st1" d="M1515,1009c-3.9,7.9-12.1,12.6-22.1,12.6c-7.4,0-13.6-2.5-18.4-7.3c-4.8-5-7.3-11.4-7.3-18.9
	c0-15.3,10.8-26.3,25.8-26.3c9.6,0,18,4.9,21.9,12.8l0.4,0.8l23.4-13.7l-0.4-0.7c-8.3-16-25.6-26-45.1-26c-15.1,0-27.9,5.1-38,15.3
	c-10.2,10.4-15.1,22.7-15.1,37.8c0,15.1,4.9,27.5,15.1,37.8l0,0c10.2,10.2,22.9,15.3,38,15.3c19.1,0,36.5-10,45.5-26.2l0.4-0.7
	l-23.6-13.5L1515,1009z"/>
<path class="st1" d="M1579.6,917.4h-27.2l0,27.7v26.2v40.4c0,13.1,2.9,21.8,9.2,27.4c5.7,5.1,14.2,7.5,26.2,7.5
	c4.1,0,8.5-0.3,13.4-0.8l0.7-0.1V1021l-0.8,0c-9.3,0.5-16.1,0.6-19.3-2.4c-1.6-1.5-2.3-3.7-2.3-6.9v-40.4h22.4v-26.2h-22.4V917.4z"
	/>
<rect x="1618.4" y="945.1" class="st1" width="27.2" height="100.7"/>
<path class="st1" d="M1631.9,901.7c-8.9,0-16.5,7.6-16.5,16.7c0,8.9,7.5,16.5,16.5,16.5c9.2,0,16.7-7.4,16.7-16.5
	C1648.6,909.3,1641,901.7,1631.9,901.7z"/>
<polygon class="st1" points="1732.9,945.1 1709.2,1012.8 1686,945.7 1685.8,945.1 1656,945.1 1694,1045.3 1694.2,1045.8 
	1724.5,1045.8 1762.7,945.1 "/>
<path class="st1" d="M1850.4,957.7c-9.4-10.2-21.6-15.3-36.5-15.3c-15.6,0-28.5,5.2-38.2,15.3c-9.9,10.1-14.9,22.8-14.9,37.8
	c0,15.2,5.1,28,15.1,38c10,10,23.5,15.1,40,15.1c19.2,0,34-7.3,43.9-21.6l0.5-0.7l-22-12.7l-0.4,0.6c-4.8,6.4-12.1,9.6-21.6,9.6
	c-14.6,0-23.4-5.6-26.9-17h74.3l0.1-0.7c0.7-4.4,1-7.6,1-10.6C1864.8,980.4,1860.1,968,1850.4,957.7z M1837.5,985.4H1789
	c3.1-11.7,12.2-18.4,24.9-18.4C1825.8,967,1834.5,973.8,1837.5,985.4z"/>
<linearGradient id="SVGID_1_" gradientUnits="userSpaceOnUse" x1="536.2594" y1="1101.042" x2="536.2594" y2="840.9611">
	<stop  offset="0.2852" style="stop-color:#40FFE8"/>
	<stop  offset="0.855" style="stop-color:#59DCFF"/>
</linearGradient>
<path class="st2" d="M487.6,1101c3.4,0,6.6-1.3,9-3.7l68.7-68.8c17-17,27.8-38.5,31.1-62.3c0.7-5.1,1.1-10.3,1.1-15.5
	c0-29.3-11.4-56.9-32.2-77.7C544.6,852.4,517,841,487.7,841h-0.1c-7,0-12.7,5.7-12.7,12.7c0,7,5.7,12.7,12.7,12.7
	c22.6,0,43.8,8.8,59.8,24.8c16,16,24.8,37.2,24.8,59.8c0,4-0.3,8-0.8,11.9c-2.6,18.3-10.9,34.8-23.9,47.9l-68.8,68.8
	c-2.4,2.4-3.7,5.6-3.7,9c0,3.4,1.3,6.6,3.7,9C481.1,1099.7,484.3,1101,487.6,1101z"/>
<linearGradient id="SVGID_2_" gradientUnits="userSpaceOnUse" x1="511.9507" y1="1101.0525" x2="511.9507" y2="840.9611">
	<stop  offset="0.3523" style="stop-color:#40DDEE"/>
	<stop  offset="0.855" style="stop-color:#59DCFF"/>
</linearGradient>
<path class="st3" d="M499,1094l0.1-0.1l34.3-68.6c8.2-16.5,13.4-37.2,15.1-59.9c0.3-4.8,0.5-9.7,0.5-14.5c0-28.3-5.4-54-15.6-74.4
	c-5.5-10.9-12-19.5-19.4-25.5c-7.8-6.4-17.1-9.9-26.2-9.9h-0.1c-7,0-12.7,5.7-12.7,12.7c0,7,5.7,12.7,12.7,12.7
	c3.4,0,6.7,1.4,10.3,4.3c4.5,3.6,9,9.7,12.7,17.2c8.2,16.4,13,39.4,12.9,63.1c0,4.2-0.1,8.5-0.4,12.8c-1.3,19.1-5.8,37-12.5,50.3
	l-34.4,68.8c-3.1,6.2-0.6,13.9,5.7,17c3,1.5,6.5,1.8,9.7,0.7C494.9,1099.3,497.5,1097.1,499,1094z"/>
<linearGradient id="SVGID_3_" gradientUnits="userSpaceOnUse" x1="487.6422" y1="1101.042" x2="487.6422" y2="840.9611">
	<stop  offset="0.2852" style="stop-color:#3FBAF3"/>
	<stop  offset="0.855" style="stop-color:#59DCFF"/>
</linearGradient>
<path class="st4" d="M487.6,841c-7,0-12.7,5.7-12.7,12.7v234.8c0,7,5.7,12.7,12.7,12.7c7,0,12.7-5.7,12.7-12.7V853.6
	C500.3,846.6,494.6,841,487.6,841z"/>
<linearGradient id="SVGID_4_" gradientUnits="userSpaceOnUse" x1="463.3355" y1="1101.036" x2="463.3355" y2="840.9611">
	<stop  offset="0.3207" style="stop-color:#3F98F9"/>
	<stop  offset="0.7803" style="stop-color:#59DCFF"/>
</linearGradient>
<path class="st5" d="M499.7,1092.4c1.1-3.2,0.8-6.6-0.7-9.7l0-0.1l-34.3-68.7c-6.7-13.3-11.1-31.2-12.5-50.3
	c-0.3-4.2-0.4-8.5-0.4-12.8c0-23.7,4.7-46.7,12.9-63.1c3.7-7.5,8.2-13.6,12.7-17.2c3.6-2.9,6.9-4.3,10.3-4.3c7,0,12.7-5.7,12.7-12.7
	c0-7-5.7-12.7-12.7-12.7h-0.1c-9,0-18.3,3.5-26.2,9.9c-7.5,6.1-13.9,14.5-19.4,25.5c-10.1,20.4-15.5,46.2-15.6,74.4
	c0,4.9,0.2,9.8,0.5,14.6c1.6,22.6,6.8,43.3,15.1,59.9l34.4,68.8c3.1,6.2,10.8,8.8,17,5.7C496.3,1098.2,498.6,1095.6,499.7,1092.4z"
	/>
<linearGradient id="SVGID_5_" gradientUnits="userSpaceOnUse" x1="439.0214" y1="1101.042" x2="439.0214" y2="840.9611">
	<stop  offset="0" style="stop-color:#3E75FF"/>
	<stop  offset="0.2894" style="stop-color:#3F77FF"/>
	<stop  offset="0.8119" style="stop-color:#59DCFF"/>
</linearGradient>
<path class="st6" d="M487.6,841L487.6,841c-29.4,0-57,11.4-77.7,32.2c-20.8,20.8-32.2,48.4-32.2,77.7c0,29.4,11.4,57,32.2,77.7
	l68.8,68.8c2.4,2.4,5.6,3.7,8.9,3.7c3.4,0,6.6-1.3,9-3.7c2.4-2.4,3.7-5.6,3.7-9c0-3.4-1.3-6.6-3.7-9l-68.8-68.8
	c-16-16-24.8-37.2-24.8-59.8c0-22.6,8.8-43.8,24.8-59.8c16-16,37.2-24.8,59.8-24.8c7,0,12.7-5.7,12.7-12.7
	C500.3,846.6,494.6,841,487.6,841z"/>
<g>
	<path class="st0" d="M720.5-1211.8h41.7c-5.2,15.7-19.5,24.8-39.3,24.8c-14.1,0-25.5-4.2-33.9-12.4c-8.4-8.4-12.6-19.1-12.6-31.9
		c0-13.1,4.2-23.9,12.5-32.1c8.3-8.5,19.1-12.8,32.1-12.8c15.6,0,29.9,7.4,36.6,18.8l0.4,0.7l24.8-14.3l-0.4-0.7
		c-12.2-20.2-35.7-32.7-61.1-32.7c-20.7,0-38.4,7.1-52.5,21.3c-14,14.2-21,31.6-21,51.9c0,20.2,7.1,37.6,21.3,51.7
		c14.2,14,32.3,21,53.9,21c20.2,0,36.9-6.3,49.7-18.7c12.8-12.4,19.3-28.8,19.3-48.7v-11.5h-71.2V-1211.8z"/>
	<rect x="805.6" y="-1301.8" class="st0" width="29" height="140.4"/>
	<path class="st0" d="M934.4-1233.9c-2-1.4-4.9-2.8-8.9-4.2c-3.8-1.6-6.8-2.8-9-3.4l-9.5-3.2c-9.7-3-16.9-6-20.7-8.6
		c-3.4-2.6-5-5.9-5-10.1c0-7.9,6.8-13.1,17.4-13.1c11.8,0,20.4,5.8,25.8,17.4l0.4,0.8l24.4-14.1l-0.3-0.7
		c-9.7-20.1-28.1-31.6-50.3-31.6c-12.8,0-23.8,3.9-32.8,11.5c-9,7.4-13.6,17.7-13.6,30.6c0,12.7,4.5,22.6,13.4,29.2
		c8.9,6.3,16.8,9.3,29,13c11,3.1,18.8,6.1,23.2,8.8c4.1,2.4,6.1,5.9,6.1,10.6c0,8.8-7.8,13.9-21.4,13.9c-15.5,0-25.9-7-31.2-20.7
		l-0.3-0.9l-24.8,14.5l0.2,0.6c8.1,22.1,28.2,34.8,55.3,34.8c15,0,27.4-3.9,36.8-11.5c9.5-7.7,14.4-18.2,14.4-31.2
		c0-7.4-1.9-14.7-5.2-20C945.1-1226.1,938.9-1231.1,934.4-1233.9z"/>
	<path class="st0" d="M1050.2-1276.3c15.6,0,28.5,7.1,35.4,19.4l0.4,0.7l25-14.5l-0.4-0.7c-12.1-20.4-35.3-33.1-60.4-33.1
		c-20.9,0-38.5,7.1-52.3,21c-13.7,13.7-20.6,31.2-20.6,51.9c0,20.5,6.9,38,20.6,51.9c13.8,14,31.4,21.1,52.3,21.1
		c25.1,0,48.2-12.7,60.4-33.1l0.4-0.7l-25-14.5l-0.4,0.7c-6.4,11.8-20,19.2-35.4,19.2c-13.3,0-24.1-4.2-32.1-12.4
		c-8-8.4-12.1-19.2-12.1-32.1c0-13.1,4.1-23.9,12.1-32.3C1026.1-1272.1,1036.9-1276.3,1050.2-1276.3z"/>
	<path class="st0" d="M1173.3-1264.8c-14.8,0-27.5,5.2-37.8,15.5c-10.3,10.3-15.3,22.6-15.3,37.6c0,15,5.1,27.7,15.3,37.8
		c10.2,10.2,22.9,15.3,37.8,15.3c15,0,27.7-5.1,37.8-15.3c10.3-10.3,15.5-23,15.5-37.8c0-14.7-5.2-27.4-15.5-37.6
		C1200.8-1259.6,1188.1-1264.8,1173.3-1264.8z M1199.4-1211.7c0,7.7-2.5,14.1-7.5,19.1c-5,5-11.1,7.5-18.7,7.5
		c-7.5,0-13.6-2.5-18.6-7.5c-4.8-5-7.3-11.5-7.3-19.1s2.5-14,7.3-19.1c5-5,11.1-7.5,18.7-7.5c7.5,0,13.6,2.5,18.7,7.5
		C1196.9-1225.7,1199.4-1219.3,1199.4-1211.7z"/>
	<rect x="1240.2" y="-1301.7" class="st0" width="27.2" height="140.1"/>
	<rect x="1286.1" y="-1301.7" class="st0" width="27.2" height="140.1"/>
	<path class="st0" d="M1378.7-1265.2c-15.6,0-28.5,5.2-38.2,15.3c-9.9,10.1-14.9,22.8-14.9,37.8c0,15.2,5.1,28,15.1,38
		c10,10,23.5,15.1,40,15.1c19.2,0,34-7.3,43.9-21.6l0.5-0.7l-22-12.7l-0.4,0.6c-4.8,6.4-12.1,9.6-21.6,9.6c-14.6,0-23.4-5.6-26.9-17
		h74.3l0.1-0.7c0.5-3.1,1-6.9,1-10.6c0-15.1-4.7-27.5-14.5-37.8C1405.8-1260,1393.5-1265.2,1378.7-1265.2z M1353.8-1222.2
		c3.1-11.7,12.2-18.4,24.9-18.4c11.9,0,20.6,6.9,23.6,18.4H1353.8z"/>
	<path class="st0" d="M1515-1198.5c-3.9,7.9-12.1,12.6-22.1,12.6c-7.4,0-13.6-2.5-18.4-7.3c-4.8-5-7.3-11.4-7.3-18.9
		c0-15.3,10.8-26.3,25.8-26.3c9.6,0,18,4.9,21.9,12.8l0.4,0.8l23.4-13.7l-0.4-0.7c-8.3-16-25.6-26-45.1-26c-15.1,0-27.9,5.1-38,15.3
		c-10.2,10.4-15.1,22.7-15.1,37.8c0,15.1,4.9,27.5,15.1,37.8l0,0c10.2,10.2,22.9,15.3,38,15.3c19.1,0,36.5-10,45.5-26.2l0.4-0.7
		l-23.6-13.5L1515-1198.5z"/>
	<path class="st0" d="M1579.6-1290.1h-27.2l0,27.7v26.2v40.4c0,13.1,2.9,21.8,9.2,27.4c5.7,5.1,14.2,7.5,26.2,7.5
		c4.1,0,8.5-0.3,13.4-0.8l0.7-0.1v-24.8l-0.8,0c-9.3,0.5-16.1,0.6-19.3-2.4c-1.6-1.5-2.3-3.7-2.3-6.9v-40.4h22.4v-26.2h-22.4
		V-1290.1z"/>
	<rect x="1618.4" y="-1262.4" class="st0" width="27.2" height="100.7"/>
	<path class="st0" d="M1631.9-1305.8c-8.9,0-16.5,7.6-16.5,16.7c0,8.9,7.5,16.5,16.5,16.5c9.2,0,16.7-7.4,16.7-16.5
		C1648.6-1298.2,1641-1305.8,1631.9-1305.8z"/>
	<polygon class="st0" points="1732.9,-1262.4 1709.2,-1194.7 1686,-1261.9 1685.8,-1262.4 1656,-1262.4 1694,-1162.2 
		1694.2,-1161.7 1724.5,-1161.7 1762.7,-1262.4 	"/>
	<path class="st0" d="M1850.4-1249.9c-9.4-10.2-21.6-15.3-36.5-15.3c-15.6,0-28.5,5.2-38.2,15.3c-9.9,10.1-14.9,22.8-14.9,37.8
		c0,15.2,5.1,28,15.1,38c10,10,23.5,15.1,40,15.1c19.2,0,34-7.3,43.9-21.6l0.5-0.7l-22-12.7l-0.4,0.6c-4.8,6.4-12.1,9.6-21.6,9.6
		c-14.6,0-23.4-5.6-26.9-17h74.3l0.1-0.7c0.7-4.4,1-7.6,1-10.6C1864.8-1227.1,1860.1-1239.5,1850.4-1249.9z M1837.5-1222.2H1789
		c3.1-11.7,12.2-18.4,24.9-18.4C1825.8-1240.6,1834.5-1233.7,1837.5-1222.2z"/>
	<linearGradient id="SVGID_6_" gradientUnits="userSpaceOnUse" x1="536.2594" y1="-1106.48" x2="536.2594" y2="-1366.5609">
		<stop  offset="0.2852" style="stop-color:#40FFE8"/>
		<stop  offset="0.855" style="stop-color:#59DCFF"/>
	</linearGradient>
	<path class="st7" d="M487.6-1106.5c3.4,0,6.6-1.3,9-3.7l68.7-68.8c17-17,27.8-38.5,31.1-62.3c0.7-5.1,1.1-10.3,1.1-15.5
		c0-29.3-11.4-56.9-32.2-77.7c-20.8-20.8-48.3-32.2-77.7-32.2h-0.1c-7,0-12.7,5.7-12.7,12.7c0,7,5.7,12.7,12.7,12.7
		c22.6,0,43.8,8.8,59.8,24.8c16,16,24.8,37.2,24.8,59.8c0,4-0.3,8-0.8,11.9c-2.6,18.3-10.9,34.8-23.9,47.9l-68.8,68.8
		c-2.4,2.4-3.7,5.6-3.7,9c0,3.4,1.3,6.6,3.7,9C481.1-1107.8,484.3-1106.5,487.6-1106.5z"/>
	<linearGradient id="SVGID_7_" gradientUnits="userSpaceOnUse" x1="511.9507" y1="-1106.4695" x2="511.9507" y2="-1366.5609">
		<stop  offset="0.3523" style="stop-color:#40DDEE"/>
		<stop  offset="0.855" style="stop-color:#59DCFF"/>
	</linearGradient>
	<path class="st8" d="M499-1113.5l0.1-0.1l34.3-68.6c8.2-16.5,13.4-37.2,15.1-59.9c0.3-4.8,0.5-9.7,0.5-14.5
		c0-28.3-5.4-54-15.6-74.4c-5.5-10.9-12-19.5-19.4-25.5c-7.8-6.4-17.1-9.9-26.2-9.9h-0.1c-7,0-12.7,5.7-12.7,12.7
		c0,7,5.7,12.7,12.7,12.7c3.4,0,6.7,1.4,10.3,4.3c4.5,3.6,9,9.7,12.7,17.2c8.2,16.4,13,39.4,12.9,63.1c0,4.2-0.1,8.5-0.4,12.8
		c-1.3,19.1-5.8,37-12.5,50.3l-34.4,68.8c-3.1,6.2-0.6,13.9,5.7,17c3,1.5,6.5,1.8,9.7,0.7C494.9-1108.2,497.5-1110.5,499-1113.5z"/>
	<linearGradient id="SVGID_8_" gradientUnits="userSpaceOnUse" x1="487.6422" y1="-1106.48" x2="487.6422" y2="-1366.5609">
		<stop  offset="0.2852" style="stop-color:#3FBAF3"/>
		<stop  offset="0.855" style="stop-color:#59DCFF"/>
	</linearGradient>
	<path class="st9" d="M487.6-1366.6c-7,0-12.7,5.7-12.7,12.7v234.8c0,7,5.7,12.7,12.7,12.7c7,0,12.7-5.7,12.7-12.7v-234.8
		C500.3-1360.9,494.6-1366.6,487.6-1366.6z"/>
	<linearGradient id="SVGID_9_" gradientUnits="userSpaceOnUse" x1="463.3355" y1="-1106.486" x2="463.3355" y2="-1366.5609">
		<stop  offset="0.3207" style="stop-color:#3F98F9"/>
		<stop  offset="0.7803" style="stop-color:#59DCFF"/>
	</linearGradient>
	<path class="st10" d="M499.7-1115.1c1.1-3.2,0.8-6.6-0.7-9.7l0-0.1l-34.3-68.7c-6.7-13.3-11.1-31.2-12.5-50.3
		c-0.3-4.2-0.4-8.5-0.4-12.8c0-23.7,4.7-46.7,12.9-63.1c3.7-7.5,8.2-13.6,12.7-17.2c3.6-2.9,6.9-4.3,10.3-4.3
		c7,0,12.7-5.7,12.7-12.7c0-7-5.7-12.7-12.7-12.7h-0.1c-9,0-18.3,3.5-26.2,9.9c-7.5,6.1-13.9,14.5-19.4,25.5
		c-10.1,20.4-15.5,46.2-15.6,74.4c0,4.9,0.2,9.8,0.5,14.6c1.6,22.6,6.8,43.3,15.1,59.9l34.4,68.8c3.1,6.2,10.8,8.8,17,5.7
		C496.3-1109.3,498.6-1111.9,499.7-1115.1z"/>
	<linearGradient id="SVGID_10_" gradientUnits="userSpaceOnUse" x1="439.0214" y1="-1106.48" x2="439.0214" y2="-1366.5609">
		<stop  offset="0" style="stop-color:#3E75FF"/>
		<stop  offset="0.2894" style="stop-color:#3F77FF"/>
		<stop  offset="0.8119" style="stop-color:#59DCFF"/>
	</linearGradient>
	<path class="st11" d="M487.6-1366.6L487.6-1366.6c-29.4,0-57,11.4-77.7,32.2c-20.8,20.8-32.2,48.4-32.2,77.7
		c0,29.4,11.4,57,32.2,77.7l68.8,68.8c2.4,2.4,5.6,3.7,8.9,3.7c3.4,0,6.6-1.3,9-3.7c2.4-2.4,3.7-5.6,3.7-9c0-3.4-1.3-6.6-3.7-9
		l-68.8-68.8c-16-16-24.8-37.2-24.8-59.8c0-22.6,8.8-43.8,24.8-59.8c16-16,37.2-24.8,59.8-24.8c7,0,12.7-5.7,12.7-12.7
		C500.3-1360.9,494.6-1366.6,487.6-1366.6z"/>
</g>
</svg>
